…
## Problem 1

#### Read the Mr.Trashwheel dataset.

``` r
path_to_data = "./data/Trash-Wheel-Collection-Totals-8-6-19.xlsx"
```

``` r
trashwhell_df
```

    ## # A tibble: 344 x 14
    ##    dumpster month  year date                weight_tons volume_cubic_ya~
    ##       <dbl> <chr> <dbl> <dttm>                    <dbl>            <dbl>
    ##  1        1 May    2014 2014-05-16 00:00:00        4.31               18
    ##  2        2 May    2014 2014-05-16 00:00:00        2.74               13
    ##  3        3 May    2014 2014-05-16 00:00:00        3.45               15
    ##  4        4 May    2014 2014-05-17 00:00:00        3.1                15
    ##  5        5 May    2014 2014-05-17 00:00:00        4.06               18
    ##  6        6 May    2014 2014-05-20 00:00:00        2.71               13
    ##  7        7 May    2014 2014-05-21 00:00:00        1.91                8
    ##  8        8 May    2014 2014-05-28 00:00:00        3.7                16
    ##  9        9 June   2014 2014-06-05 00:00:00        2.52               14
    ## 10       10 June   2014 2014-06-11 00:00:00        3.76               18
    ## # ... with 334 more rows, and 8 more variables: plastic_bottles <dbl>,
    ## #   polystyrene <dbl>, cigarette_butts <dbl>, glass_bottles <dbl>,
    ## #   grocery_bags <dbl>, chip_bags <dbl>, sports_balls <int>,
    ## #   homes_powered <dbl>
…
``` r
# row-combine precip_2018 and precip_2017
precip_df = 
  bind_rows(precip_2018, precip_2017) 
precip_m = left_join(precip_df, month_df, by = "month") 
precip_m 
```

    ## # A tibble: 24 x 4
    ##     year month total month_name
    ##    <dbl> <dbl> <dbl> <chr>     
    ##  1  2018     1  0.94 January   
    ##  2  2018     2  4.8  February  
    ##  3  2018     3  2.69 March     
    ##  4  2018     4  4.69 April     
    ##  5  2018     5  9.27 May       
    ##  6  2018     6  4.77 June      
    ##  7  2018     7 10.2  July      
    ##  8  2018     8  6.45 August    
    ##  9  2018     9 10.5  September 
    ## 10  2018    10  2.12 October   
    ## # ... with 14 more rows
…
    ## See spec(...) for full column specifications.

``` r
transit_df
```

    ## # A tibble: 1,868 x 19
    ##    line  station_name station_latitude station_longitu~ route1 route2 route3
    ##    <chr> <chr>                   <dbl>            <dbl> <chr>  <chr>  <chr> 
    ##  1 4 Av~ 25th St                  40.7            -74.0 R      <NA>   <NA>  
    ##  2 4 Av~ 25th St                  40.7            -74.0 R      <NA>   <NA>  
    ##  3 4 Av~ 36th St                  40.7            -74.0 N      R      <NA>  
    ##  4 4 Av~ 36th St                  40.7            -74.0 N      R      <NA>  
    ##  5 4 Av~ 36th St                  40.7            -74.0 N      R      <NA>  
    ##  6 4 Av~ 45th St                  40.6            -74.0 R      <NA>   <NA>  
    ##  7 4 Av~ 45th St                  40.6            -74.0 R      <NA>   <NA>  
    ##  8 4 Av~ 45th St                  40.6            -74.0 R      <NA>   <NA>  
    ##  9 4 Av~ 45th St                  40.6            -74.0 R      <NA>   <NA>  
    ## 10 4 Av~ 53rd St                  40.6            -74.0 R      <NA>   <NA>  
    ## # ... with 1,858 more rows, and 12 more variables: route4 <chr>, route5 <chr>,
    ## #   route6 <chr>, route7 <chr>, route8 <dbl>, route9 <dbl>, route10 <dbl>,
    ## #   route11 <dbl>, entrance_type <chr>, entry <lgl>, vending <chr>, ada <lgl>
…
